{
  "name": "default",
  "type": "postgres",
  "host": "postgres",
  "port": 5432,
  "username": "BVN_user",
  "password": "bvn_password",
  "database": "test_database",
  "synchronize": true,
  "logging": false,
  "entities": [
    "dist/entity/*.js"
  ],
  "subscribers": [
    "dist/subscriber/*.js"
  ],
  "migrations": [
    "dist/migration/*.js"
  ],
  "cli": {
    "entitiesDir": "dist/entity",
    "migrationsDir": "dist/migration",
    "subscribersDir": "dist/subscriber"
  }
}